{
  "cordova-plugin-whitelist": {
    "source": {
      "type": "registry",
      "id": "cordova-plugin-whitelist@1"
    },
    "is_top_level": true,
    "variables": {}
  },
  "cordova-plugin-toaster": {
    "source": {
      "type": "registry",
      "id": "cordova-plugin-toaster"
    },
    "is_top_level": true,
    "variables": {}
  },
  "cordova-plugin-splashscreen": {
    "source": {
      "type": "registry",
      "id": "cordova-plugin-splashscreen@4.1.0"
    },
    "is_top_level": true,
    "variables": {}
  },
  "cordova-connectivity-monitor": {
    "source": {
      "type": "registry",
      "id": "cordova-connectivity-monitor"
    },
    "is_top_level": false,
    "variables": {}
  },
  "cordova-plugin-admobpro": {
    "source": {
      "type": "registry",
      "id": "cordova-plugin-admobpro"
    },
    "is_top_level": true,
    "variables": {}
  },
  "cordova-plugin-extension": {
    "source": {
      "type": "registry",
      "id": "cordova-plugin-extension"
    },
    "is_top_level": false,
    "variables": {}
  }
}